{
    "LoginPagewelcometitle": "تسرنا رؤيتك",
    "LginPagewelcometext": "أهلا بكم من جديد الرجاء تسجيل الدخول مرة أخرى",
    "ButtonEmail": "البريد الإلكتروني",
    "ButtonMobile": "رقم الجوال",
    "txt_Email": "أدخل البريد الإلكتروني",
    "txt_password": "أدخل رقم الجوال",
    "btn_LoginAct": "أدخل كلمة المرور",
    "loginbuttonName":"تسجيل الدخول",
    "FrgetPsswrdBttnName":"نسيت كلمة المرور؟",
    "SignUpBttnName":"سجل",
    "SignupTxt":"لم يكن لديك حساب؟",
    "Forgetpasswordtitle":"نسيت كلمة المرور",
    "Forgetpasswordtext":"الرجاء ادخال البريد الألكتروني المسجل أو رقم الهاتف",
    "Forgetpasswordcancell":"إلغاء",
    "CANCEL":"إلغاء",
    "ForgetpasswordSubmitt":"إدخال",
    "mobilenumnotentered":" الرجاء ادخال رقم الهاتف المسجل",
    "Mailid not entered":"الرجاء ادخال البريد الألكتروني المسجل",
    "RegName":"أدخل الاسم ",
    "RegMobile":"أدخل رقم الجوال",
    "RegMAilid":" أدخل البريد الإلكتروني",
    "Regpassword":"أدخل كلمة المرور",
    "RegConfirmpassword":"تأكيد كلمة المرور",
    "RegCity":"أدخل اسم المدينة",
    "Buttonregistername":"تسجيل",
    "malebuttnname":"ذكر",
    "femalebuttonname":"أنثى",
    "Regcountryname":"المملكة العربية السعودية",
    "registerbuttnname":"تسجيل",
    "inputmail":"أدخل البريد الإلكتروني",
    "inputpassword":"أدخل كلمة المرور",
    "Namealert":"الرجاء إدخال الأسم",
    "Namevalidate":"يجب أن يتكون الاسم من 2-15 حرف ",
    "genderalert":"يرجى تحديد الجنس",
    "Mobilealert":"الرجاء إدخال رقم الجوال",
    "mobilevalidate":"يجب ان يحتوي رقم الجوال علي 9 ارقام",
    "mobilealreadytaken":"قم الجوال موجود من قبل   ",
    "emailalreadytaken":"لقد تم تسجيل البريد الألكتروني من قبل",
    "Chooseanotherone":"يرجى اختيار آخر",
    "Mailidvalidate":"الرجاء ادخال البريد الالكتروني",
    "Mailidnotvalid":"البريد الالكتروني غير صحيح",
    "Passwordvalidate":"الرجاء إدخال كلمة مرور",
    "confirmpass":"تأكيد كلمة المرور",
    "Passmatch":"كلمات المرور غير متطابق",
    "Cityvalid":"الرجاء إدخال اسم مدينة",
    "regalerttitle":"التسجيل",
    "Slidearrhme":"الصفحة الرئيسية ",
    "Slidearrprof":"الملف الشخصي",
    "SlidearrWllt":" رصيد",
    "SlidearrSMS":"ارسال رسائل قصيرة مجانية",
    "SlideArrBooknow":"أحجز الأن",
    "Slidearradv":"أعلن معنا",
    "Slidearrfl": "قائمة حرة",
    "SlidearrSHare":" شارك مع اصدقائك",
    "Slifdearrcont":"اتصل بنا",
    "SlidearrAbtus":"عن الشركة",
    "SlideSelectLanguage":"اختر لغتك",
    "Slidearrlgt":"تسجيل الخروج",
    "DBvalue":"AR",
    "pleaseEnterEmail":"الرجاء ادخال البريد الالكتروني",
    "pleaseEnterMobile":"الرجاء ادخال رقم الجوال",
    "PleaseEnterValidMobile":"الرجاء ادخال رقم جوال صحيح",
    "PleaseEnterpassword":"الرجاء ادخال كلمة المرور",
    "PleaseEnterEmail/Mobile":"الرجاء ادخال البريد الالكتروني / رقم الجوال",
    "PleaseEnterValidEmail/Mobile":"(***@***.com OR 9665********)الرجاء ادخال بريد الكتروني / رقم جوال صحيح ",
    "ratings":"التقييم",
    "recharge":"تعبئة الرصيد",
    "sms":"رسالة قصيرة ",
    "email":"البريد الالكتروني",
    "results":"النتائج",
    "businessDetails":"تفاصيل العمل",
    "confirmPaymentDetails":"تأكيد تفاصيل الدفع",
    "walletBal":"رصيد",
    "amount":"القيمة",
    "paywith":"ادفع عن طريق",
    "addmoney":"إضافة قيمة",
    "offersForYou":" عروض من أجلك",
    "AddMoneyWallet":"إضاف رصيد إلى المحفظة ",
    "nooffers":"عذراً لا تتوفر عروض حالياَ",
    "tcApplyName":";كقيمة اضافية. T&C Apply",
    "additionalcash":"قيمة اضافية",
    "CREDIT":"بطاقة ائتمان",
    "sadad":"سداد",
    "EnterAmount":" ادخل القيمة",
    "selpaymentMethod":"اختر طريقة الدفع",
    "plsenteramount":" فضلا ادخل القيمة",
    "plsselPaygateway":"الرجاء تحديد طريقة الدفع",
    "myprofile":"الملف الشخصي",
    "connlost":"انقطع الاتصال",
    "checknetconn":"يرجى التحقق من الاتصال بالإنترنت",
    "amount10":"يجب ان تكون القيمة اكبر من او تساوى 10 ريال",
    "msgToFrnds":"أرسل لاصدقائك",
    "msgToday":"الرسائل الخاصة بك لهذا اليوم",
    "mobNum":"رقم الجوال",
    "msgName":"رسالة",
    "charLeft":"الحروف المتبقية",
    "sendName":"ارسل",
    "enterrecipient":"أدخل رقم المستلم",
    "entermsg":"أدخل رسالتك",
    "msgsentsuccessfully":"تم ارسال الرسالة بنجاح",
    "msgsendingfailed":"فشل إرسال الرسالة",
    "proceedpay":"المضي قدما لدفع ﷼ ",
    "review":"  عرض ",
    "selRating":"اختر التقييم",
    "succsubRatings":"تم استلام تقييمك بنجاح",
    "plssubratings":"فضلاً ارسل تقييمك",
    "senddetails":"أرسل التفاصيل",
    "callviewcontacts":"اتصال/عرض جهات الاتصال",
    "viewmap":"عرض الخريطة",
    "sharesocnetworks":"شاركنا علي الشبكات الاجتماعية",
    "share":" شارك ",
    "name":": الأسم",
    "mobnum":": رقم الجوال",
    "Email":": البريد الالكتروني",
    "Amount":": القيمة",
    "scndstep":"الخطوة التالية",
    "thirdstep":"الخطوة الثالثة",
    "Riyadh":"الرياض",
    "startWith5":"'5'يجب أن يبدا رقم الجوال بالرقم",
    "registration":"التسجيل",
    "t&c":"بالتسجيل اوافق علي بنود وشروط سددلي",
    "nohistFound":"لايوجد تاريخ",
    "myratings":"تقييمي",
    "mymails":"بريدي الالكتروني",
    "mysms":"رسائلي",
    "pwd6char":"كلمة المرور يجب ان تتكون من 8 أحرف علي الاقل ",
    "cnfrmpwd6char":"تاكيد كلمة المرور يجب ان يحتوي 8 أحرف علي الاقل ",
    "selCityName":" أختر المنطقة؟ ( اختياري)",
    "lookingfor":"البحث عن؟ مثال لذلك : فندق",
    "selPaymentGateway":"اختر طريقة الدفع",
    "selArea":"أختر المنطقة",
    "searchArea":"أختر اسم المدينة",
    "mobileRecharge":"تعبئة الرصيد",
    "addMoney":"إضافة قيمة ",
    "PhoneBook":"سجل الهاتف",
    "searchByName":"البحث عن طريق الإسم",
    "bussMap":"خارطة العمل",
    "unableToFetch":"غير قادر على جلب عنوان",
    "choosefile":"اختر الملف",
    "camera":"كاميرا",
    "photos":"الصور",
    "applyingt&c":"تطبيق البنود والشروط",
    "sadadNotSupporting":"نحن الان لا ندعم سداد",
    "chooseCredit/Debit":"فضلاً اختر البطاقة المصرفية",
    "bussDetSentMob":"تم إرسال تفاصيل العمل لرقم هاتفك بنجاح",
    "bussDetSentEmail":"تم إرسال تفاصيل العمل لبريدك الالكتروني بنجاح ",
    "bussDetNotSent":"لم يتم ارسال تفاصيل العمل",
    "copCodeSentMob":"تم إرسال رمز الكوبون لرقم هاتفك بنجاح ",
    "copCodeSetEmail":"تم إرسال رمز الكوبون لبريدك الالكتروني بنجاح",
    "copCodeNotSent":"لم يتم ارسال رمز الكوبون",
    "selTheCityName":"اختر اسم المدينة",
    "iFoundThis":"وجدت ",
    "adinDialus":" في دايل اص / عنوان البحث المحلي :",
    "contact":" .اتصل بنا",
    "search":"  بحث ",
    "change":"تغيير",
    "next":"التالي",
    "anyNameToSearch":"!ادخل اي إسم للبحث",
    
    
    "RegCancelled":"تم إالغاء التسجيل",
    "mobNumTakenChooseAnother":"لقد تم تسجيل الرقم من قبل يرجى إختيار رقم اخر ",
    "email/Mobile":"البريد الألكتروني / رقم الجوال",
    "shareUrMsg":" مشاركة رسالتك ",
    "plans":"الباقات",
    "uncheckOtherPayment":"قم بإلغاء خيار محفظة سددلي  واختر طريقه اخرى للدفع",
    "planName":": إسم الباقة",
    "Voice":" الباقات الصوتية",
    "Data":"باقات الإنترنت ",
    "payBalAmount":": ادفع قيمة الرصيد",
    "WalletAmount":": رصيد",
    "rechargeamount":": قيمة الرصيد",
    "UsewalletDialus":": استخدم رصيد سددلي",
    "RemainingWallet":": الرصيد المتبقي",
    "Paynow":"ادفع الأن",
    "OtherPaymentModes":": نماذج الدفع الاخرى",
    "CREDITDEBITCARDName":"البطاقة المصرفية",
    "SadadName":" سداد",
    "RechargeConfirmation":"لتأكيد",
    "operator":"مزود الخدمة ",
    "MobileNumberCard":": رقم الجوال",
    "Operator":":  مزود الخدمة ",
    "RechargePlanCard":":  باقة التعبئة ",
    "FromCard":": من البطاقة",
    "ProceedtoPaycard":"الاستمرار في الدفع",
    "PayfromCard":"ادفع من البطاقة المصرفية",
    "browsePlans":"الباقات المتوفره",
    "Of":"في",
    "all":"كل",
    "saudi":"المملكة العربية السعودية",
    "RechargePlanWall":": باقات تعبئة الرصيد",
    "FromWall":": القيمة من المحفظة",
    "ProceedtoPayWall":"الاستمرار في الدفع",
    "Payfromwallet":"أدفع من الرصيد",
    "RechargeAmountSuccess":": نجاح شحن الرصيد",
    "TransactionIDSuccess":": رقم التحويل",
    "success":"تم بنجاح",
    "Tnxtxt":"شكراً لك لإستخدام خدمات سددلي",
    "done":"تم",
    "plsSelOperator":"الرجاء إختيار المزود",
    "plsSelPlan":"الرجاء إختيار الباقة",
    "haveACouponCode":"هل لديك كوبون ؟",
    "couponCode":"رمز الكوبون",
    "enterCouponCode":"ادخل رمز الكوبون ",
    "10SmsPerDay":"عذرا، يمكنك إرسال 10رسائل فقط في اليوم",
    "myRcs":"جميع التحاويل",
    "remainWallet":"الرصيد المتبقي",
    "txnStatus":": حركة الحساب",
    "amountFromCard":": القيمة من البطاقة",
    "txnHistory":"حركة الحساب",
    "RcStatus":"تأكيد التعبئه ",
    "noResFound":"لا توجد نتيجة",
    "congrats":"تهانينا",
    "failure":"فشلت العملية",
    "creditedUrAcc":"تمت اضافة القيمة بنجاح للحسابك ",
    "notCreditedUrAccount":"لم يتم اضافة القيمة للحسابك",
    "msgNotSent":"لم يتم إرسال الرسالة",
    "msgLimitExc":"تم تجاوز الحد المسموح به للرسائل ",
    "alreadySubmittedRatings":"لقد قمت بتقييم هذا العمل من قبل",
    "exit":"خروج",
    "couponApplied":":تطبيق الكوبون",
    "moneyAddedWallet":"الرصيد المضاف ",
    "relatedCategories":"فئات ذات صلة",
    "relatedArea":"منطقة ذات صلة",
    "additionalCash":"قيمة اضافية",
    "wentWrong":" حدث خطأ ما ",
    "plsTryAgain":"يرجي المحاولة ثانية",
    "sendMoney":"إرسال قيمة",
    "shareAwesomeApp":"رجاء عمل إشتراك لهذا التطبيق",
    "shareSocialNetworks":"التفعيل والاشتراك عبر الشبكات الإجتماعية",
    "totAmountTobepaid":" القيمة الكلية الواجب دفعها : ",
    "frmOhterPayModes":"(من نماذج الدفع الاخرى)",
    "pickfrmContact":"إختيار من قائمة الإتصال",
    "to":":الي",
    "actualCash":"القيمة الحقيقية: ",
    "bonusCash":"قيمة المكافأة: ",
    "amountGreater0":"'يجب ان تكون القيمة اكبر من '0",
    "rateUs":"قيمنا",
    "rateUs5Star":"قيمنا ب 5 نجمات",
    "enterCouponToAvailOffers":"أدخل رمز الكوبون لتستفيد من العروض",
    "ok":"تم",
    "selUrGenderOptional":"ذكر ام انثى  (اختيارى )",
    "mobNumNotZain":"لشركة زين لاينتمى رقم الجوال",
    "plsTryByZain":"يرجى المحاولة مرة أخرى عن طريق إدخال رقم جوال ينتمى لشركة زين ",
    "pwdRegMobNumEmail":"تم إرسال كلمة المرور الي رقم جوالك المسجل أوالأيميل",
    "noAccMobNum":"لايوجد حساب برقم هذا الجوال",
    "noAccEmailId":"لايوجد حساب بهذا الأيميل",
    "wrongPwd":"كلمة المرور خاطئة",
    "dialusContactInfo":"سوف تحصل على رسالة نصية قريباً من سددلي .لمزيد من الإستفسارات أرسلوا طلبكم من خلال خيار الدعم او الأتصال بنا على الرقم 920000092.",
    "inCaseRefNo":"في حالة حدوث اي مشاكل يمكنك أن تستخدم الرقم المشار إليه",
    "whileContactingDialus":"خلال إتصالك بسددلي",
    "veryPoor":"ضعيف جداً",
    "poor":"ضعيف",
    "average":"متوسط",
    "good":"جيد",
    "excellent":"ممتاز",
    "actualCashMoneyTransfer":"الرصيد الممنوح من سددلي يستخدم لشحن ولا يمكن ارساله لعملاء اخرين",
    "add/sendmoney":"اضافة / ارسال قيمة",
    "insuffWalPlsAddToWallet":"الرصيد غير كافي ، يرجى اضافة رصيد",
    "insuffWalBal":"رصيد المحفظة غير كافئ",
    "comments":"التعليقات:",
    "enterCommOptional":"أدخل التعليقات (إختياري",
    "from":"من",
    "uHaveSucSent":"لقد تم الإرسال بنجاح",
    "backToHome":"العودة الي الصفحة الرئيسية",
    "orderId":"رقم الطلب: ",
    "To":"الي",
    "camNotSupp":"الجهاز الحالي لا يدعم الكاميرا",
  
    "totAmoSent":"القيمة الكلية المراد ارسالها  : ",
    
    "receivedMoney":"تم استلام قيمة",
    "bonucash":"قيمة المكافأة",
    "senMon":"ارسال قيمة",
    "addiCash":"قيمة اضافية",
    "sendmoneystatus":"حالة التحويل",
    "confirmdetails":"تأكيد التفاصيل",
    "pay/send":"الدفع / ارسال",
    "sendMoneyMobNum":"ارسال  قيمة الكوبون إلى رقم الجوال",
    "scanqrcode":"مسح رمز الاستجابة السريع",
    "showqrcode":"عرض رمز الاستجابة السريع",
    "senMonmobnumorContact":"كود الشحن الي رقم الجوال او جهة الاتصال",    "scanMerchQRcode":"مسح رمز الاستجابة السريع للدفع",
    "showmechaQRcode":"عرض رمز الاستجابة السريع للعملاء للدفع",
    "selAnOption":"حدد خيار",
    "sendmoney":"ارسال قيمة",
    "changePwd":"تغيير كلمة المرور",
    "oldpwd":": كلمة المرور القديمة",
    "newpwd":": كلمة المرور الجديدة",
    "confPwd":": تأكيد كلمة المرور",
    "reenternewPwd":"إعادة إدخال كلمة المرور الجديدة",
    "update":"تحديث",
    "enteroldpwd":"أدخل كلمة المرور الجديدة",
    "enternewpwd":"تأكيد كلمة المرور الجديدة",
    "incorrOldPwd":"كلمة المرور القديمة غير صحيحة",
    "urpwdupdated":"لقد تم تحديث كلمة المرور",
    "norecRcs":"الرصيد غير متوفر حالياً",
    
    "noSentMsgs":"لا توجد رسائل مرسلة",
    "status":"حالة",
    "refNum":"الرقم المشار اليه:",
    "plsEntoldPwd":" فضلاً ادخل كلمة المرور القديمة",
    "plsEntNewPwd":"فضلاً أدخل كلمة المرور الجديدة",
    "oldPwd6Char":"يجب أن تحتوي كلمة المرور القديمة علي الاقل علي 8 حروف",
    "newPwd6Char":"يجب أن تحتوي كلمة المرور الجديدة علي الاقل علي 8 حروف",
    "newconpwdmatch":"يجب أن تتطابق كلمة المرور الجديدة وتأكيد كلمة المرور",
    "oldconfpwdsame":"كلمة المرور التي أدخلتها تشابه كلمة المرورالسابقه، فضلاً قم بتغييرها",
    "connDialHelpline":"الاتصال بسددلي للمساعده",
    "scanDialCode":"فحص رمز الاستجابه السريعة",
    "toPay":"الدفع الى",
    "or":"او",
    "download":" تحميل",
    "print":" طباعة",
    "signIn":"تسجيل الدخول",
    "signUp":"تسجيل البيانات",
    

    "re-enterEmailId":"فضلاً اعد إدخال البريد الالكتروني",
    "reenterEmailnotValid":"اعد إدخال البريد الالكتروني ***@***.com",
    "bothReenterMailsnotvalidate":"البريدان الالكترونيان غير مطابقان",
    "reentEmail":"اعد إدخال البريد الالكتروني",
    "reentEmail:":": اعد إدخال البريد الالكتروني",
    "Emailid:":": البريد الالكتروني",
    "account":"الحساب",
    "invFrndsEarn5Riyal":" ادعو أصدقائك واحصل علي  5 ريال ",
    "inviteFrnds":"ادعو أصدقائك",
    
    "wonderfulThaknu":"رائع , شكراً لك",
    "activationcode":"كود التفعيل",
    "wesentpwdtoMobNum":"سوف نرسل كلمة المرور الخاصة بك لرقم الجوال الذي ادخلته",
    "homemsg":"تنويه : تم اضافة شركات شحن جديدة يمكنك الأطلاع عليها من قائمة الشركات الجديدة",
    "services":"الخدمات",
    "welcomeback":" مرحبا ",
    "urcurrwalamounis":"الرصيد الحالي ",
    
    "Regtext":"فضلاُ أدخل كلمة المرور المؤقته",
    "enterOTP":"أدخل كلمة المرور المؤقته",
    "loginOtp":"تسجيل الدخول بكلمة المرور المؤقته",
    "getOTP":"أحصل علي كلمة المرور المؤقته",
    "incorrOTP":"كلمة المرور التي أدخلتها غير صحيحة",
    "ValidOTP":"كلمة المرور المؤقته صحيحة",
    

    "seAll":" أختر الكل ",
    "plsselcontacts":"فضلاً اختر قائمة الاتصال",
    
    "sentInvFrnds":"أرسل دعوة الي اصدقائك",
    "NotSentInvFrnds":"لم تقم بأرسال دعوة الي الاصدقاء",
    "AlreadySentInvFrnds":"لقد قمت بالفعل بأرسال دعوة الي اصدقائك",
    "failgetLoca":"تم فشل العملية للحصول علي موقعك",
    "sadGivessevChoitorc":"سددلي تتيح لك العديد من الخيارات لتعبئة الرصيد",
    "douwantchaprofphoto":"هل تود تغيير صورة ملفك الشخصي",
    "yes":"نعم",
    "no":"لا",
    "howtoRedeem":"كيف يمكنك استخدام العلاوه النقديه",
    "offers":"عروض",
    "changeEmail":" تغيير الأيميل ",
    "selOperator":"اختر مزود الخدمة",
    "uHaveSucAdded":"تم الإضافة بنجاح",
    "couponvalidonce/month":"الكوبون صالح لمره واحده بالشهر",
    "invalQRCode":"رمز الإستجابة السريع غير صالح",
    "scanAValidSaddCode":"فضلاً قم بعمل مسح لرمز الإستجابة السريع مع تطبيق سددلي",
    "amountSuccToFrnd":"تم ارسال القيمة بنجاح لصديقك",
    "checkinwebt&c":"فضلاً تأكد عبر موقعنا",
    "invited":"دعوة",
    
    "help":"للمساعده",
    "serTaxApp100":"ضريبة الخدمة سارية على الرصيد أقل من 100",
    "serviceTax":"1.5 SAR : ضريبة الخدمة",
    "balamount10":"يجب ان تكون قيمة الرصيد أكبر من أوتساوى 10ريال",
    "cardbalamount10":"يجب أن تكون القيمة من البطاقة أكبر من أو تساوي 10",
    
    
    "uremailupdated":"وتحديث البريد الإلكتروني الخاص بك",
    "DEBIT/ATMCARD":" بطاقة الصراف الآلي",

    "EnterOTP":"  فضلاً ادخل كلمة المرور المؤقته",

    "EmailExist":"الأيميل موجود مسبقاً",
    "notifications":"إشعار",
    "shareTitle":"شارك",

    
    "faqs":"اسئلة متكرره",
    "demovideo":"فيديو توضيحى",
    "folowUsOn":"تابعنا على",
    

    "launchsoon":"سنبدأ قريباً",
    "voucherCode":": كود الشحن",
    "giftCards":"بطاقات الهدايا",
    "transferCOuponvalue":"ارسال قيمة",
    "referralCode":"رمز المشاركة  (اختيارى )",

    "entersadadid":"أدخل اسم المستخدم لحساب سداد",
    "sadadid":"اسم المستخدم لحساب سداد",
    "PurchaseGiFtcards":"شراء بطاقات الهدايا",
    "browsegiftcards":"أطلع علي بطاقات الهدايا",
    "purchase":" شراء",
    "GiftCards":"بطاقات الهدايا",
    "US":"المتجر الامريكي",
    "UK":"المتجر البريطاني",
    "enterIqmaNum":"رقم الهوية",
    "plsentSadadId":"يرجى ادخال اسم المستخدم لحساب سداد",
    "enterIqmaNum":"رقم الهوية",
    "clicktoRc":"للشحن اضغط هنا",
    "iqmaNotEmpty":"فضلا ادخل رقم الهوية",
    "iqma10digits":"يتكون رقم الهوية من ١٠ ارقام",
    "voucherCodeCopy":" تم نسخ كود الشحن",
    "ussdCopied":"تم نسخ كود الشحن فضلا قم بالالصاق علي مفتاح الاتصال",
    "purConfirmation":"تأكيد الشراء",
    "store":"متجر",
    "purchaseValue":"قيمة الشراء",
    "purchaseStatus":"حالة او وضع الشراء",
    "rcPlan":"باقة التعبئة",
    "rcValue":"قيمة الرصيد",
    "entSADADID":"أدخل اسم المستخدم لحساب سداد",
    "seledOperator":"مزود الخدمة",
    "guest":"زائر",
    "continueGuest":"مواصلة كزائر",
    "GuestRegistration":"هل تريد التسجيل علي التطبيق ؟",
    "OLPID":"حساب سداد غير موجود. الرجاء إدخال حساب صحيح",
    "verification":"تحقق",
    "copy":"نسخ",
    "details":"التفاصيل",
    "refund":"إعادة النقود",
    "card":"بطاقة",
    "repeat":"تكرار",
    "invoice":"فاتورة",
    "paidusing":"المبلغ المستخدم",
    "transactedon":"تمت معالجتها:",
    "nonotiYes":"لا توجد اشعارات الان",
    "giftcard":"بطاقات الهدايا",
    "refundreceived":"تم إستلام المبلغ المسترجع",
    "mobileRc":"تعبئة الرصيد :",
    

    "writeUs":"راسلنا",
    "plsselurlan":"يرجى اختيار اللغة",
    
    
    "issuetype":"نوع المشكلة",
    "txnId":"رقم التحويل",
    "ticketid":"رقم تعريف التذكرة",
    "txnDate":"تاريخ التحويل",
    "txntime":"زمن التحويل",
    "aboutIssue":"عن المشكلة",
    "fileAttach":"ملف مرفق",
    
    "selissuetype":"تحديد نوع المشكلة",
    
    "plsselissuetype":"الرجاء تحديد نوع المشكلة",
    "plsentTxnId":"الرجاء ادخال رمز التحويل",
    "plsseltxndate":"فضلا اختر تاريخ التحويل",
    "plsseltxntime":"فضلا اختر زمن التحويل",
    "plsentissue":"فضلا اكتب المشكلة",
    "plsattachFile":"فضلا ارفق الملف",
    
    
    
    
    
    "itunesGC":"آي تيونز",
    "xboxGC":"بطاقات اكس بوكس",
    "playstationGC":"بطاقات بلاي ستيشن",

    

    "sadad6-12char":"يجب ان يكون اسم مستخدم سداد بين  6-12حرف",
    "Support":"الدعم",
    
    
    "name12":"الأسم",
    "mobnum12":"رقم الجوال",
    "Email12":"البريد الالكتروني",
    "Amount12":"القيمة",

  
    "iqmaNum":"رقم الإقامة",
    
    
    
    
    "actVal":"القيمة الحقيقية",
    "payBalVal":"ادفع قيمة الرصيد",
    
    
    "urBalance":"رصيدكم الان",
    

    
    "voicePackage":"باقات المكالمات",
    "dataPackage":"باقات الانترنت",
   
    "usPackage":"المتجر الامريكي",
    "ukPackage":"المتجر البريطاني",
    
    
    "selPackage":"اختر الباقة",
    "updateProfle":"تحديث الملف الشخصي",
    
    "quickRc":"شحن سريع",
    "vouchCode":"كود الشحن",

    "plsEntVouCode":"فضلا ادخل كوبون الشحن",
    "transferName":"تحويل",
    "Nopuravailable":"لا مشتريات حاليه ",


    "onlyMobile":"الجوال",
    
    "willSendotpMobNum":"سوف نرسل كلمة المرور المؤقته لرقم الجوال المدخل",
    "enterotpMobNum":"فضلاً أدخل كلمة المرور المؤقته التي أرسلت لرقم جوالك",
    

    "iqma10or14":"يجب ان تكون  ارقام الإقامة من 10 الى14 رقم",
    "seldOper":"مزود الخدمة",
    

    "pwd8char":"كلمة المرور يجب ان تتكون من 8 أحرف علي الاقل ",
    "cnfrmpwd8char":"تاكيد كلمة المرور يجب ان يحتوي 8 أحرف علي الاقل ",
    
    
    "Sawaname":"سوى",
    "Zainname":"زين",
    "Virginname":"فيرجن",
    "Friendiname":"فريندلي",
    "Jawwyname":"جاوي",
    "Quicknetname":"كويكنت",
    "Mobilyname":"سوى",
    "Lebaraname":"ليبارا",
    
    "numbername":"رقم",
    "planname":"خطة",
    
    "repeatNotAllow":"غير مسموح بتكرار الحروف  لكلمة المرور",
    "updatePwd":"تحديث كلمة المرور",
    
    
    
    
    
    
}
