{
    "en": {
        "LoginPagewelcometitle": "GOOD TO SEE YOU!",
        "LginPagewelcometext": "Welcome Back..Please Login Again",
        "inputmail":"Enter Email id",
        "inputpassword":"Enter password",
        "ButtonEmail": "  Email",
        "ButtonMobile": "  Mobile",
        "txt_Email": "Enter Email",
        "txt_password": "Enter Mobile Number",
        "btn_LoginAct": "Enter Password",
        "loginbuttonName":"Login",
        "FrgetPsswrdBttnName":"Forgot Password?",
        "SignUpBttnName":"Sign Up",
        "SignupTxt":"Don't have an account?",
        "Forgetpasswordtitle":"Forgot Password",
        "Forgetpasswordtext":"Please enter your registered email id or mobile number",
        "Forgetpasswordcancell":"Cancel",
        "CANCEL":"CANCEL",
        "ForgetpasswordSubmitt":"Submit",
        "mobilenumnotentered":"Please enter your registered mobile number",
        "Mailid not entered":"Please enter yoiur registered mail id",
        "RegName":"Enter Name ",
        "RegMobile":"Enter Mobile number",
        "RegMAilid":"Enter Email id",
        "Regpassword":"Enter Password",
        "RegConfirmpassword":"Please Enter Confirm password",
        "RegCity":"Enter City Name",
        "Buttonregistername":"Register",
        "malebuttnname":"Male",
        "femalebuttonname":"Female",
        "registerbuttnname":"Register",
        "Regcountryname":"Saudi Arabia",
        "Namealert":"Please Enter Name",
        "Namevalidate":"Name must contain 2-15 Characters",
        "genderalert":"Please Select Gender",
        "Mobilealert":"Please Enter Mobile Number",
        "mobilevalidate":"Mobile Number Should contain 9 digits",
        "mobilealreadytaken":"Mobile Number already taken",
        "emailalreadytaken":"Email Id already taken",
        "Chooseanotherone":"Please Choose another one",
        "Mailidvalidate":"Please Enter mail Id",
        "Mailidnotvalid":"MailId is In-Correct",
        "Passwordvalidate":"Please Enter password",
        "confirmpass":"Confirm password",
        "Passmatch":"Password and Confirm password are not Matching",
        "Cityvalid":"Please Enter City Name",
        "regalerttitle":"Registration",
        "Regtext":"Please Enter OTP",
        "Slidearrhme":"Home",
        "Slidearrprof":"Profile",
        "SlidearrWllt":"Balance",
        "SlidearrSMS":"Send Free SMS",
        "SlideArrBooknow":"Book Now",
        "Slidearradv":"Adverise with us",
        "Slidearrfl":"Free Listing",
        "SlidearrSHare":"Share with your friends",
        
        "Slifdearrcont":"Contact Us",
        "SlidearrAbtus":"About Us",
        "SlideSelectLanguage":"Select Your Language",
        "Slidearrlgt":"Logout",
        "DBvalue":"SA",
        "pleaseEnterEmail":"Please Enter EMail id",
        "pleaseEnterMobile":"Please Enter Mobile Number",
        "PleaseEnterValidMobile":"Please Enter Valid Mobile Number",
        "PleaseEnterpassword":"Please Enter password",
        "PleaseEnterEmail/Mobile":"Please Enter Email/Mobile",
        "PleaseEnterValidEmail/Mobile":"Please Enter a Valid Email id/Mobile no.(***@***.*** OR 9665********)",
        "ratings":"Ratings",
        "recharge":"Recharge",
        "sms":"SMS",
        "email":"Email",
        "results":"Results",
        "businessDetails":"Business Details",
        "confirmPaymentDetails":"Confirm Payment Details",
        "walletBal":"Balance",
        "amount":"Value",
        "paywith":"Pay With",
        "addmoney":"Add Value",
        "offersForYou":"OFFERS FOR YOU",
        "nooffers":"Sorry,Currently No Offers Available for you",
        "AddMoneyWallet":"Add Value to Wallet and Get",
        "tcApplyName":"as Additional Value. T&C Apply",
        "additionalcash":" ADDITIONAL VALUE",
        "CREDIT":"CREDIT CARD",
        "sadad":"SADAD",
        "EnterAmount":"Enter Value",
        "selpaymentMethod":"Select the Payment Method",
        "plsenteramount":"Please Enter Value",
        "plsselPaygateway":"Please Select the Payment Method",
        "myprofile":"My Profile",
        "connlost":"Connection Lost",
        "checknetconn":"Please Check Your Internet Connection",
        "amount10":"Value must be greater than or equal to 10",
        "msgToFrnds":" Message To Your Friends",
        "msgToday":"Your Messages for today",
        "mobNum":"Mobile Number ",
        "msgName":"Message ",
        "charLeft":"Characters Left",
        "sendName":"Send",
        "enterrecipient":"Enter Recipient",
        "entermsg":"Enter Your Message",
        "msgsentsuccessfully":"Message sent successfully",
        "msgsendingfailed":"Message Sending failed",
        "proceedpay":"Proceed To Pay ﷼",
        "review":"  Review",
        "selRating":"Select Rating",
        "succsubRatings":"Successfully Submitted Your Ratings to ",
        "plssubratings":"Please Submit Your Ratings",
        "senddetails":"Send Details",
        "callviewcontacts":"Call/View Contacts",
        "viewmap":"View Map",
        "sharesocnetworks":"Share on Social Networks",
        "share":" Share",
        "name":"Name :",
        "mobnum":"Mobile Number :",
        "Email":"Email :",
        "Amount":"Value :",
        "scndstep":"Second Step",
        "thirdstep":"Third Step",
        "Riyadh":"Riyadh",
        "startWith5":"Mobile Number should Start with '5'",
        "registration":"Registration",
        "t&c":"By Registering, I accept the Terms & Conditions of Saddly",
        "nohistFound":"No History Found",
        "myratings":"My Ratings",
        "mymails":"My Mails",
        "mysms":"My SMS",
        "pwd6char":"Password Must Contain atleast 6 Characters",
        "cnfrmpwd6char":"Confirm Password Must Contain atleast 6 Characters",
        "selCityName":"Select Area Name? (optional)",
        "lookingfor":"Looking for? e.g : Hotel",
        "selPaymentGateway":"Select Your Payment Method",
        "selArea":"Select Area",
        "searchArea":"Search the City Name",
        "mobileRecharge":"  Mobile Recharge",
        "addMoney":"  Add Value",
        "PhoneBook":"PhoneBook",
        "searchByName":"Search by Name",
        "bussMap":"Business Map",
        "unableToFetch":"Unable to fetch the address",
        "choosefile":"Choose File",
        "camera":"Camera",
        "photos":"Photos",
        "applyingt&c":"Applying Terms and Conditions",
        "sadadNotSupporting":"Now We Are Not Supporting SADAD",
        "chooseCredit/Debit":"Please Choose CREDIT/DEBIT CARD",
        "bussDetSentMob":"Business Details Successfully send to your mobile number",
        "bussDetSentEmail":"Business Details Successfully send to your Email Id",
        "bussDetNotSent":"Business Details are not sent",
        "copCodeSentMob":"Coupon Code is successfully sent to your mobile number",
        "copCodeSetEmail":"Coupon Code is successfully sent to your Email Id",
        "copCodeNotSent":"Coupon Code is not sent",
        "selTheCityName":"Select The City Name",
        "iFoundThis":"I found this ",
        "adinDialus":" Ad in Saddly | LocalSearch Address:",
        "contact":". Contact:",
        "change":"Change",
        "search":"Search",
        "next":"Next",
        "anyNameToSearch":"Enter any Name to Search!",
        
        
        "enterOTP":"Enter OTP",
        "RegCancelled":"Registration is Cancelled",
        "email/Mobile":"Email Id/Mobile Number",
        "shareUrMsg":" Share Your Message",
        "plans":"Plans",
        "uncheckOtherPayment":"Uncheck the Saddly Balance to pay using other options",
        "planName":"Plan Name :",
        "Voice":"Voice",
        "Data":"Data",
        "payBalAmount":"Pay Balance Value :",
        "WalletAmount":"Balance :",
        "rechargeamount":"Recharge Value :",
        "UsewalletDialus":" Use Saddly Balance :",
        "RemainingWallet":"Remaining Balance :",
        "Paynow":"Pay Now",
        "OtherPaymentModes":"Other Payment Modes :",
        "CREDITDEBITCARDName":"CREDIT/DEBITCARD",
        "SadadName":"Sadad",
        "RechargeConfirmation":"Confirmation",
        "operator":"Operator",
        "MobileNumberCard":"Mobile Number :",
        "Operator":"Operator :",
        "RechargePlanCard":"Recharge Plan :",
        "FromCard":"From Card :",
        "ProceedtoPaycard":"Proceed to Pay",
        "PayfromCard":"Pay From Card",
        "browsePlans":"Browse Plans",
        "Of":"of",
        "all":"All",
        "saudi":"Saudi Arabia",
        "RechargePlanWall":"Recharge Plan :",
        "FromWall":"Amount From Balance :",
        "ProceedtoPayWall":"Proceed to Pay",
        "Payfromwallet":"Pay From Balance",
        "RechargeAmountSuccess":"Recharge Value :",
        "TransactionIDSuccess":"Transaction ID :",
        "success":"Success",
        "Tnxtxt":"Thank You for using the Saddly Services",
        "done":"Done",
        "plsSelOperator":"Please Select the Operator",
        "plsSelPlan":"Please Select the Plan",
        "haveACouponCode":"Have a Coupon Code?",
        "couponCode":"Coupon Code",
        "enterCouponCode":"Enter a Coupon Code",
        "10SmsPerDay":"Sorry,You Can Send Only 10 SMS Per Day",
        "myRcs":"Total Transactions",
        "remainWallet":"Remaining Balance",
        "txnStatus":"Transaction Status :",
        "amountFromCard":"Value From Card :",
        "txnHistory":"View Transactions",
        "RcStatus":"Recharge Status",
        "noResFound":"No Results Found",
        "congrats":"Congratulations",
        "failure":"Failure",
        "creditedUrAcc":"Value is Successfully Credited in Your Account",
        "notCreditedUrAccount":"Value is not Credited in Your Account",
        "msgNotSent":"Message Not Sent",
        "msgLimitExc":"Messages Limit Exceeeded",
        "alreadySubmittedRatings":"You have already Submitted Your Ratings to ",
        "exit":"Exit",
        "couponApplied":"Coupon Applied:",
        "moneyAddedWallet":"Added  Balance",
        "relatedCategories":"Related Categories",
        "relatedArea":"Related Area",
        "additionalCash":"Additional Value",
        "wentWrong":"Something Went Wrong..",
        "plsTryAgain":"Please Try Again..",
        "sendMoney":" Send Value",
        "shareAwesomeApp":"Share this awesome application",
        "shareSocialNetworks":"Share On Social Networks",
        "totAmountTobepaid":"Total Value to be paid : ",
        "frmOhterPayModes":"(From Other Payment Modes)",
        "pickfrmContact":"Pick from Contact",
        "to":"To:",
        "actualCash":"Actual Value: ",
        "bonusCash":"Bonus Value: ",
        "amountGreater0":"Value should be greater than '0'",
        "rateUs":"Rate Us",
        "rateUs5Star":"Rate Us 5 Star",
        "enterCouponToAvailOffers":"Enter your Coupon Code to avail the Offers",
        "ok":"OK",
        "selUrGenderOptional":"Select Your Gender (Optional)",
        "mobNumNotZain":"Mobile Number is not Zain",
        "plsTryByZain":"Please try again by entering correct Zain Mobile Number",
        "pwdRegMobNumEmail":"Password sent successfully to your Registered Mobile Number or Emailid",
        "noAccMobNum":"No account exist with this Mobile Number",
        "noAccEmailId":"No account exist with this Email Id",
        "wrongPwd":"Wrong Password",
        "dialusContactInfo":"*You should get an SMS from the Saddly shortly. For more Queries raise a ticket through support or call us on 920000092.",
        "inCaseRefNo":"In case of any issues you may use Reference no.",
        "whileContactingDialus":"while contacting Saddly.",
        "veryPoor":"Very Poor",
        "poor":"Poor",
        "average":"Average",
        "good":"Good",
        "excellent":"Excellent",
        "actualCashMoneyTransfer":"Only Actual Value is Available for Value Transfer",
        "add/sendmoney":"Add/Send Value",
        "insuffWalPlsAddToWallet":"Insufficent Balance, Please add Balance",
        "insuffWalBal":"Insufficent Balance",
        "comments":"Comments:",
        "enterCommOptional":"Enter Comments (Optional)",
        "from":"From",
        "uHaveSucSent":"You have successfully sent",
        "backToHome":"Back to Home",
        "orderId":"Order ID: ",
        "To":"to",
        "camNotSupp":"Camera not Supported by the Current Device",
      
        "totAmoSent":"Total Value to be Sent : ",
        "actCash:":"Actual Value :",
        "receivedMoney":"Received Value",
        "bonucash":"Bonus Value",
        "senMon":"Send Value",
        "addiCash":"Additional Value",
        "sendmoneystatus":"Send Value Status",
        "confirmdetails":"Confirm Details",
        "pay/send":"Pay/Send",
        "sendMoneyMobNum":"TRANSFER COUPON VALUE TO A MOBILE NUMBER",
        "scanqrcode":"SCAN QR CODE",
        "showqrcode":"SHOW QR CODE",
        "senMonmobnumorContact":"Transfer Coupon Value to a Mobile Number or Contact",
        
        "scanMerchQRcode":"Scan Merchant's QR Code to Pay",
        "showmechaQRcode":"Show QR Code to the Merchant's to Pay",
        "selAnOption":"SELECT AN OPTION",
        "sendmoney":"Send Value",
        "changePwd":"Change Password",
        "oldpwd":"Old Password :",
        "newpwd":"New Password :",
        "confPwd":"Confirm Password :",
        "reenternewPwd":"Re-Enter New Password",
        "update":"Update",
        "enteroldpwd":"Enter Old Password",
        "enternewpwd":"Enter New Password",
        "incorrOldPwd":"In-Correct Old Password",
        "urpwdupdated":"Your Password has Updated",
        "norecRcs":"There are No Recent Recharges",
        "loginOtp":"Login With OTP",
        "getOTP":"Get OTP",
        "noSentMsgs":"There are No Sent Messages",
        "status":"Status",
        "refNum":"Reference Number: ",
        "plsEntoldPwd":"Please Enter Old Password",
        "plsEntNewPwd":"Please Enter New Password",
        "oldPwd6Char":"Old Password Must Contain atleast 6 Characters",
        "newPwd6Char":"New Password Must Contain atleast 6 Characters",
        "newconpwdmatch":"New Password and Confirm password must matched",
        "oldconfpwdsame":"Your New Password is Same as Old Password,Please Change it.",
        "connDialHelpline":"Connecting to Saddly Helpline",
        "scanDialCode":"Scan this Saddly QR Code",
        "toPay":"To Pay",
        "or":"or",
        "download":" Download",
        "print":" Print",
        "signIn":"Login",
        "signUp":"Sign Up",
        "incorrOTP":"Incorrect OTP",
        "ValidOTP":"Please Enter a Valid OTP",
        
        "re-enterEmailId":"Please Re-Enter Email Id",
        "reenterEmailnotValid":"Re-Enter EMailId In-Correct",
        "bothReenterMailsnotvalidate":"Both EMail Ids Are not Matched",
        "reentEmail":"Re-Enter Email Id",
        "reentEmail:":"Re-Enter Email Id:",
        "Emailid:":"Email Id:",
        "account":"Account",
        "invFrndsEarn5Riyal":" Invite Friends & Earn 5 SAR",
        "inviteFrnds":"Invite Friends",
        
        
        "wonderfulThaknu":"Wonderful, Thank You",
        "activationcode":"Activation Code",
        "wesentpwdtoMobNum":"We will send your password to the entered mobile number",
        "homemsg":"Disclaimer: we added new recharge companies and now you can check it out from the list of new companies.",
        "services":"Services",
        "welcomeback":" Welcome ",
        "urcurrwalamounis":" Your Current Balance Is ",
        "seAll":" Select All ",
        "plsselcontacts":"Please Select the Contacts",
        
        "sentInvFrnds":"Sent an invitation to Friends",
        "NotSentInvFrnds":"Not Sent an invitation to Friends",
        "AlreadySentInvFrnds":"Already Sent an invitation to Friends",
        "failgetLoca":"Failed to Get Your Location",
        "sadGivessevChoitorc":"Saddly gives you Several Choices to Recharge",
        "douwantchaprofphoto":"Do You Want to Change Your Profile Photo?",
        "yes":"YES",
        "no":"NO",
        "howtoRedeem":"How to Redeem ?",
        "offers":"Offers",
        "changeEmail":"Change Email Id",
        "selOperator":"SELECT OPERATOR",
        "uHaveSucAdded":"You have successfully added",
        "couponvalidonce/month":"Coupon Valid Once Per Month",
        "invalQRCode":"Invalid QR Code",
        "scanAValidSaddCode":"Please Scan A Valid QR Code With Saddly Application",
        "amountSuccToFrnd":"Value is Successfully Sent to Your Friend",
        "checkinwebt&c":"Please Check it in Our Website",
        "invited":" Invited",
        "help":"Help",
        "serTaxApp100":"Service Tax is Applicable for the Value Below 100",
        "serviceTax":"Service Tax : 1.5 SAR",
        "balamount10":"Balance Value must be greater than or equal to 10",
        "cardbalamount10":"Value from Card must be greater than or equal to 10",
        
        "uremailupdated":"Your Email has Updated",
        "EnterOTP":"Please Enter OTP",
        
        "DEBIT/ATMCARD":"DEBIT/ATM CARD",
        "EmailExist":"Email Id Already Exists",
        "notifications":"Notifications",
        "shareTitle":"Share",
        "faqs":"FAQs",
        "demovideo":"Demo Video",
        "folowUsOn":"Follow Us On",
        
        "launchsoon":"Launching Soon",
        "voucherCode":"Voucher Code :",
        "giftCards":"Gift Cards",
        "transferCOuponvalue":"Transfer Coupon Value",
        "referralCode":"Referral Code(Optional)",
        "entersadadid":"Enter SADAD ID",
        "sadadid":"SADAD ID",
        "PurchaseGiFtcards":"Purchase Gift Cards",
        "browsegiftcards":"Browse Gift Cards",
        "purchase":"Purchase",
        "GiftCards":"Gift Cards",
        "US":"US",
        "UK":"UK",
        "plsentSadadId":"Please Enter SADAD Id",
        "enterIqmaNum":"Enter Iqma Number",
        "clicktoRc":"Click Here To Recharge",
        "iqmaNotEmpty":"Iqma Number Cannot be Empty",
        "iqma10digits":"Iqma Number must contain 10 digits",
        "voucherCodeCopy":"Voucher Code Copied",
        "ussdCopied":"Code Is Copied,Please Paste It in Your DialPad And Recharge",
        "purConfirmation":"Purchase Confirmation",
        "store":"Store",
        "purchaseValue":"Purchase Value",
        "purchaseStatus":"Purchase Status",
        "rcPlan":"Recharge Plan",
        "rcValue":"Recharge Value",
        "entSADADID":"Enter SADAD ID",
        "seledOperator":"Selected operator",
        "guest":"Guest",
        "continueGuest":"Continue as Guest",
        "GuestRegistration":"Do You Want To Register On The Application?",
        "OLPID":"SADAD ID  Does not exist. Please Enter Valid SADAD ID",
        "verification":"Verification",
        "copy":"Copy",
        "details":"Details",
        "refund":"Refund",
        "card":"Card",
        "repeat":"Repeat",
        "invoice":"Invoice",
        "paidusing":"Paid Using",
        "transactedon":"Transacted On:",
        "nonotiYes":"No Notifications Yet",
        "giftcard":"Gift Card",
        "refundreceived":"Refund received for",
        "mobileRc":"Mobile Recharge :",
        
        "writeUs":"Write Us",
        "plsselurlan":"Please Select Your Language",
        
        
        "issuetype":"Issue Type",
        "txnId":"Transaction Id",
        "ticketid":"Ticket Id",
        "txnDate":"Transaction Date",
        "txntime":"Transaction Time",
        "aboutIssue":"About Issue",
        "fileAttach":"File Attachment",
        

        "selissuetype":"Select Issue Type",
        
        
        "plsselissuetype":"Please Select Issue Type",
        "plsentTxnId":"Please Enter Transaction Id",
        "plsseltxndate":"Please Select Transaction Date",
        "plsseltxntime":"Please Select Transaction Time",
        "plsentissue":"Please Enter the Issue",
        "plsattachFile":"Please Attach the File",
        
        
        "itunesGC":"iTunes Card",
        "xboxGC":"Xbox Card",
        "playstationGC":"Playstation Card",
        
        "sadad6-12char":"SADAD ID is in between 6-12 Characters",
        "Support":"Support",
        
        
        "name12":"Name",
        "mobnum12":"Mobile Number",
        "Email12":"Email",
        "Amount12":"Value",
        

        "iqmaNum":"Iqma Number",
        
        "actVal":"Actual Value",
        "payBalVal":"Pay Balance Value",
        
        
        "urBalance":"Your Balance",
        
        "voicePackage":"Voice Call Package",
        "dataPackage":"Internet Data Package",
        "usPackage":"US Store",
        "ukPackage":"UK Store",
        

        "selPackage":"Select Package",
        "updateProfle":"Update Profile",
        

        "quickRc":"Quick Recharge",
        "vouchCode":"Voucher Code",

        "plsEntVouCode":"Please Enter Voucher Code",
        "transferName":"Transfer",
        "Nopuravailable":"No Purchases Available",
       
        "onlyMobile":"Mobile",
        "lblMinChar75":"Minimum Characters Should be 75",
        
        "willSendotpMobNum":"We will send the OTP to the entered mobile number",
        "enterotpMobNum":"Please enter the OTP recieved on your mobile number",
        
        "iqma10or14":"Iqma Number Should be 10 or 14 Characters",
        
        
        "seldOper":"SELECTED OPERATOR",
        
        
        "pwd8char":"Password Must Contain atleast 8 Characters",
        "cnfrmpwd8char":"Confirm Password Must Contain atleast 8 Characters",
        
        
        
        
        
        
        
        "Sawaname":"Sawa",
        "Zainname":"Zain",
        "Virginname":"Virgin",
        "Friendiname":"Friendi",
        "Jawwyname":"Jawwy",
        "Quicknetname":"Quicknet",
        "Mobilyname":"Mobily",
        "Lebaraname":"Lebara",
        
        
        "numbername":"Number",
        "planname":"Plan",
        
        
        "repeatNotAllow":"Repeated Characters are not Allowed in Password",
        "updatePwd":"Update Password",
        
        

        

        
    },
    
    "ru":
    
    {
        "LoginPagewelcometitle": "تسرنا رؤيتك",
        "LginPagewelcometext": "أهلا بكم من جديد الرجاء تسجيل الدخول مرة أخرى",
        "ButtonEmail": "البريد الإلكتروني",
        "ButtonMobile": "رقم الجوال",
        "txt_Email": "أدخل البريد الإلكتروني",
        "txt_password": "أدخل رقم الجوال",
        "btn_LoginAct": "أدخل كلمة المرور",
        "loginbuttonName":"تسجيل الدخول",
        "FrgetPsswrdBttnName":"نسيت كلمة المرور؟",
        "SignUpBttnName":"سجل",
        "SignupTxt":"لم يكن لديك حساب؟",
        "Forgetpasswordtitle":"نسيت كلمة المرور",
        "Forgetpasswordtext":"الرجاء ادخال البريد الألكتروني المسجل أو رقم الهاتف",
        "Forgetpasswordcancell":"إلغاء",
        "CANCEL":"إلغاء",
        "ForgetpasswordSubmitt":"إدخال",
        "mobilenumnotentered":" الرجاء ادخال رقم الهاتف المسجل",
        "Mailid not entered":"الرجاء ادخال البريد الألكتروني المسجل",
        "RegName":"أدخل الاسم ",
        "RegMobile":"أدخل رقم الجوال",
        "RegMAilid":" أدخل البريد الإلكتروني",
        "Regpassword":"أدخل كلمة المرور",
        "RegConfirmpassword":"تأكيد كلمة المرور",
        "RegCity":"أدخل اسم المدينة",
        "Buttonregistername":"تسجيل",
        "malebuttnname":"ذكر",
        "femalebuttonname":"أنثى",
        "Regcountryname":"المملكة العربية السعودية",
        "registerbuttnname":"تسجيل",
        "inputmail":"أدخل البريد الإلكتروني",
        "inputpassword":"أدخل كلمة المرور",
        "Namealert":"الرجاء إدخال الأسم",
        "Namevalidate":"يجب أن يتكون الاسم من 2-15 حرف ",
        "genderalert":"يرجى تحديد الجنس",
        "Mobilealert":"الرجاء إدخال رقم الجوال",
        "mobilevalidate":"يجب ان يحتوي رقم الجوال علي 9 ارقام",
        "mobilealreadytaken":"قم الجوال موجود من قبل   ",
        "emailalreadytaken":"لقد تم تسجيل البريد الألكتروني من قبل",
        "Chooseanotherone":"يرجى اختيار آخر",
        "Mailidvalidate":"الرجاء ادخال البريد الالكتروني",
        "Mailidnotvalid":"البريد الالكتروني غير صحيح",
        "Passwordvalidate":"الرجاء إدخال كلمة مرور",
        "confirmpass":"تأكيد كلمة المرور",
        "Passmatch":"كلمات المرور غير متطابق",
        "Cityvalid":"الرجاء إدخال اسم مدينة",
        "regalerttitle":"التسجيل",
        "Slidearrhme":"الصفحة الرئيسية ",
        "Slidearrprof":"الملف الشخصي",
        "SlidearrWllt":" رصيد",
        "SlidearrSMS":"ارسال رسائل قصيرة مجانية",
        "SlideArrBooknow":"أحجز الأن",
        "Slidearradv":"أعلن معنا",
        "Slidearrfl": "قائمة حرة",
        "SlidearrSHare":" شارك مع اصدقائك",
        "Slifdearrcont":"اتصل بنا",
        "SlidearrAbtus":"عن الشركة",
        "SlideSelectLanguage":"اختر لغتك",
        "Slidearrlgt":"تسجيل الخروج",
        "DBvalue":"AR",
        "pleaseEnterEmail":"الرجاء ادخال البريد الالكتروني",
        "pleaseEnterMobile":"الرجاء ادخال رقم الجوال",
        "PleaseEnterValidMobile":"الرجاء ادخال رقم جوال صحيح",
        "PleaseEnterpassword":"الرجاء ادخال كلمة المرور",
        "PleaseEnterEmail/Mobile":"الرجاء ادخال البريد الالكتروني / رقم الجوال",
        "PleaseEnterValidEmail/Mobile":"(***@***.com OR 9665********)الرجاء ادخال بريد الكتروني / رقم جوال صحيح ",
        "ratings":"التقييم",
        "recharge":"تعبئة الرصيد",
        "sms":"رسالة قصيرة ",
        "email":"البريد الالكتروني",
        "results":"النتائج",
        "businessDetails":"تفاصيل العمل",
        "confirmPaymentDetails":"تأكيد تفاصيل الدفع",
        "walletBal":"رصيد",
        "amount":"القيمة",
        "paywith":"ادفع عن طريق",
        "addmoney":"إضافة قيمة",
        "offersForYou":" عروض من أجلك",
        "AddMoneyWallet":"إضاف رصيد إلى المحفظة ",
        "nooffers":"عذراً لا تتوفر عروض حالياَ",
        "tcApplyName":";كقيمة اضافية. T&C Apply",
        "additionalcash":"قيمة اضافية",
        "CREDIT":"بطاقة ائتمان",
        "sadad":"سداد",
        "EnterAmount":" ادخل القيمة",
        "selpaymentMethod":"اختر طريقة الدفع",
        "plsenteramount":" فضلا ادخل القيمة",
        "plsselPaygateway":"الرجاء تحديد طريقة الدفع",
        "myprofile":"الملف الشخصي",
        "connlost":"انقطع الاتصال",
        "checknetconn":"يرجى التحقق من الاتصال بالإنترنت",
        "amount10":"يجب ان تكون القيمة اكبر من او تساوى 10 ريال",
        "msgToFrnds":"أرسل لاصدقائك",
        "msgToday":"الرسائل الخاصة بك لهذا اليوم",
        "mobNum":"رقم الجوال",
        "msgName":"رسالة",
        "charLeft":"الحروف المتبقية",
        "sendName":"ارسل",
        "enterrecipient":"أدخل رقم المستلم",
        "entermsg":"أدخل رسالتك",
        "msgsentsuccessfully":"تم ارسال الرسالة بنجاح",
        "msgsendingfailed":"فشل إرسال الرسالة",
        "proceedpay":"المضي قدما لدفع ﷼ ",
        "review":"  عرض ",
        "selRating":"اختر التقييم",
        "succsubRatings":"تم استلام تقييمك بنجاح",
        "plssubratings":"فضلاً ارسل تقييمك",
        "senddetails":"أرسل التفاصيل",
        "callviewcontacts":"اتصال/عرض جهات الاتصال",
        "viewmap":"عرض الخريطة",
        "sharesocnetworks":"شاركنا علي الشبكات الاجتماعية",
        "share":" شارك ",
        "name":": الأسم",
        "mobnum":": رقم الجوال",
        "Email":": البريد الالكتروني",
        "Amount":": القيمة",
        "scndstep":"الخطوة التالية",
        "thirdstep":"الخطوة الثالثة",
        "Riyadh":"الرياض",
        "startWith5":"'5'يجب أن يبدا رقم الجوال بالرقم",
        "registration":"التسجيل",
        "t&c":"بالتسجيل اوافق علي بنود وشروط سددلي",
        "nohistFound":"لايوجد تاريخ",
        "myratings":"تقييمي",
        "mymails":"بريدي الالكتروني",
        "mysms":"رسائلي",
        "pwd6char":"كلمة المرور يجب ان تتكون من 6 أحرف علي الاقل ",
        "cnfrmpwd6char":"تاكيد كلمة المرور يجب ان يحتوي 6 أحرف علي الاقل ",
        "selCityName":" أختر المنطقة؟ ( اختياري)",
        "lookingfor":"البحث عن؟ مثال لذلك : فندق",
        "selPaymentGateway":"اختر طريقة الدفع",
        "selArea":"أختر المنطقة",
        "searchArea":"أختر اسم المدينة",
        "mobileRecharge":"تعبئة الرصيد",
        "addMoney":"إضافة قيمة ",
        "PhoneBook":"سجل الهاتف",
        "searchByName":"البحث عن طريق الإسم",
        "bussMap":"خارطة العمل",
        "unableToFetch":"غير قادر على جلب عنوان",
        "choosefile":"اختر الملف",
        "camera":"كاميرا",
        "photos":"الصور",
        "applyingt&c":"تطبيق البنود والشروط",
        "sadadNotSupporting":"نحن الان لا ندعم سداد",
        "chooseCredit/Debit":"فضلاً اختر البطاقة المصرفية",
        "bussDetSentMob":"تم إرسال تفاصيل العمل لرقم هاتفك بنجاح",
        "bussDetSentEmail":"تم إرسال تفاصيل العمل لبريدك الالكتروني بنجاح ",
        "bussDetNotSent":"لم يتم ارسال تفاصيل العمل",
        "copCodeSentMob":"تم إرسال رمز الكوبون لرقم هاتفك بنجاح ",
        "copCodeSetEmail":"تم إرسال رمز الكوبون لبريدك الالكتروني بنجاح",
        "copCodeNotSent":"لم يتم ارسال رمز الكوبون",
        "selTheCityName":"اختر اسم المدينة",
        "iFoundThis":"وجدت ",
        "adinDialus":" في دايل اص / عنوان البحث المحلي :",
        "contact":" .اتصل بنا",
        "search":"  بحث ",
        "change":"تغيير",
        "next":"التالي",
        "anyNameToSearch":"!ادخل اي إسم للبحث",
        
        
        "RegCancelled":"تم إالغاء التسجيل",
        "mobNumTakenChooseAnother":"لقد تم تسجيل الرقم من قبل يرجى إختيار رقم اخر ",
        "email/Mobile":"البريد الألكتروني / رقم الجوال",
        "shareUrMsg":" مشاركة رسالتك ",
        "plans":"الباقات",
        "uncheckOtherPayment":"قم بإلغاء خيار محفظة سددلي  واختر طريقه اخرى للدفع",
        "planName":": إسم الباقة",
        "Voice":" الباقات الصوتية",
        "Data":"باقات الإنترنت ",
        "payBalAmount":": ادفع قيمة الرصيد",
        "WalletAmount":": رصيد",
        "rechargeamount":": قيمة الرصيد",
        "UsewalletDialus":": استخدم رصيد سددلي",
        "RemainingWallet":": الرصيد المتبقي",
        "Paynow":"ادفع الأن",
        "OtherPaymentModes":": نماذج الدفع الاخرى",
        "CREDITDEBITCARDName":"البطاقة المصرفية",
        "SadadName":" سداد",
        "RechargeConfirmation":"لتأكيد",
        "operator":"مزود الخدمة ",
        "MobileNumberCard":": رقم الجوال",
        "Operator":":  مزود الخدمة ",
        "RechargePlanCard":":  باقة التعبئة ",
        "FromCard":": من البطاقة",
        "ProceedtoPaycard":"الاستمرار في الدفع",
        "PayfromCard":"ادفع من البطاقة المصرفية",
        "browsePlans":"الباقات المتوفره",
        "Of":"في",
        "all":"كل",
        "saudi":"المملكة العربية السعودية",
        "RechargePlanWall":": باقات تعبئة الرصيد",
        "FromWall":": القيمة من المحفظة",
        "ProceedtoPayWall":"الاستمرار في الدفع",
        "Payfromwallet":"أدفع من الرصيد",
        "RechargeAmountSuccess":": نجاح شحن الرصيد",
        "TransactionIDSuccess":": رقم التحويل",
        "success":"تم بنجاح",
        "Tnxtxt":"شكراً لك لإستخدام خدمات سددلي",
        "done":"تم",
        "plsSelOperator":"الرجاء إختيار المزود",
        "plsSelPlan":"الرجاء إختيار الباقة",
        "haveACouponCode":"هل لديك كوبون ؟",
        "couponCode":"رمز الكوبون",
        "enterCouponCode":"ادخل رمز الكوبون ",
        "10SmsPerDay":"عذرا، يمكنك إرسال 10رسائل فقط في اليوم",
        "myRcs":"جميع التحاويل",
        "remainWallet":"الرصيد المتبقي",
        "txnStatus":": حركة الحساب",
        "amountFromCard":": القيمة من البطاقة",
        "txnHistory":"حركة الحساب",
        "RcStatus":"تأكيد التعبئه ",
        "noResFound":"لا توجد نتيجة",
        "congrats":"تهانينا",
        "failure":"فشلت العملية",
        "creditedUrAcc":"تمت اضافة القيمة بنجاح للحسابك ",
        "notCreditedUrAccount":"لم يتم اضافة القيمة للحسابك",
        "msgNotSent":"لم يتم إرسال الرسالة",
        "msgLimitExc":"تم تجاوز الحد المسموح به للرسائل ",
        "alreadySubmittedRatings":"لقد قمت بتقييم هذا العمل من قبل",
        "exit":"خروج",
        "couponApplied":":تطبيق الكوبون",
        "moneyAddedWallet":"الرصيد المضاف ",
        "relatedCategories":"فئات ذات صلة",
        "relatedArea":"منطقة ذات صلة",
        "additionalCash":"قيمة اضافية",
        "wentWrong":" حدث خطأ ما ",
        "plsTryAgain":"يرجي المحاولة ثانية",
        "sendMoney":"إرسال قيمة",
        "shareAwesomeApp":"رجاء عمل إشتراك لهذا التطبيق",
        "shareSocialNetworks":"التفعيل والاشتراك عبر الشبكات الإجتماعية",
        "totAmountTobepaid":" القيمة الكلية الواجب دفعها : ",
        "frmOhterPayModes":"(من نماذج الدفع الاخرى)",
        "pickfrmContact":"إختيار من قائمة الإتصال",
        "to":":الي",
        "actualCash":"القيمة الحقيقية: ",
        "bonusCash":"قيمة المكافأة: ",
        "amountGreater0":"'يجب ان تكون القيمة اكبر من '0",
        "rateUs":"قيمنا",
        "rateUs5Star":"قيمنا ب 5 نجمات",
        "enterCouponToAvailOffers":"أدخل رمز الكوبون لتستفيد من العروض",
        "ok":"تم",
        "selUrGenderOptional":"ذكر ام انثى  (اختيارى )",
        "mobNumNotZain":"لشركة زين لاينتمى رقم الجوال",
        "plsTryByZain":"يرجى المحاولة مرة أخرى عن طريق إدخال رقم جوال ينتمى لشركة زين ",
        "pwdRegMobNumEmail":"تم إرسال كلمة المرور الي رقم جوالك المسجل أوالأيميل",
        "noAccMobNum":"لايوجد حساب برقم هذا الجوال",
        "noAccEmailId":"لايوجد حساب بهذا الأيميل",
        "wrongPwd":"كلمة المرور خاطئة",
        "dialusContactInfo":"سوف تحصل على رسالة نصية قريباً من سددلي .لمزيد من الإستفسارات أرسلوا طلبكم من خلال خيار الدعم او الأتصال بنا على الرقم 920000092.",
        "inCaseRefNo":"في حالة حدوث اي مشاكل يمكنك أن تستخدم الرقم المشار إليه",
        "whileContactingDialus":"خلال إتصالك بسددلي",
        "veryPoor":"ضعيف جداً",
        "poor":"ضعيف",
        "average":"متوسط",
        "good":"جيد",
        "excellent":"ممتاز",
        "actualCashMoneyTransfer":"الرصيد الممنوح من سددلي يستخدم لشحن ولا يمكن ارساله لعملاء اخرين",
        "add/sendmoney":"اضافة / ارسال قيمة",
        "insuffWalPlsAddToWallet":"الرصيد غير كافي ، يرجى اضافة رصيد",
        "insuffWalBal":"رصيد المحفظة غير كافئ",
        "comments":"التعليقات:",
        "enterCommOptional":"أدخل التعليقات (إختياري",
        "from":"من",
        "uHaveSucSent":"لقد تم الإرسال بنجاح",
        "backToHome":"العودة الي الصفحة الرئيسية",
        "orderId":"رقم الطلب: ",
        "To":"الي",
        "camNotSupp":"الجهاز الحالي لا يدعم الكاميرا",
     
        "totAmoSent":"القيمة الكلية المراد ارسالها  : ",
        "actCash:":": القيمة الحقيقية",
        "receivedMoney":"تم استلام قيمة",
        "bonucash":"قيمة المكافأة",
        "senMon":"ارسال قيمة",
        "addiCash":"قيمة اضافية",
        "sendmoneystatus":"حالة التحويل",
        "confirmdetails":"تأكيد التفاصيل",
        "pay/send":"الدفع / ارسال",
        "sendMoneyMobNum":"ارسال  قيمة الكوبون إلى رقم الجوال",
        "scanqrcode":"مسح رمز الاستجابة السريع",
        "showqrcode":"عرض رمز الاستجابة السريع",
        "senMonmobnumorContact":"كود الشحن الي رقم الجوال او جهة الاتصال",    "scanMerchQRcode":"مسح رمز الاستجابة السريع للدفع",
        "showmechaQRcode":"عرض رمز الاستجابة السريع للعملاء للدفع",
        "selAnOption":"حدد خيار",
        "sendmoney":"ارسال قيمة",
        "changePwd":"تغيير كلمة المرور",
        "oldpwd":": كلمة المرور القديمة",
        "newpwd":": كلمة المرور الجديدة",
        "confPwd":": تأكيد كلمة المرور",
        "reenternewPwd":"إعادة إدخال كلمة المرور الجديدة",
        "update":"تحديث",
        "enteroldpwd":"أدخل كلمة المرور الجديدة",
        "enternewpwd":"تأكيد كلمة المرور الجديدة",
        "incorrOldPwd":"كلمة المرور القديمة غير صحيحة",
        "urpwdupdated":"لقد تم تحديث كلمة المرور",
        "norecRcs":"الرصيد غير متوفر حالياً",
        
        "noSentMsgs":"لا توجد رسائل مرسلة",
        "status":"حالة",
        "refNum":"الرقم المشار اليه:",
        "plsEntoldPwd":" فضلاً ادخل كلمة المرور القديمة",
        "plsEntNewPwd":"فضلاً أدخل كلمة المرور الجديدة",
        "oldPwd6Char":"يجب أن تحتوي كلمة المرور القديمة علي الاقل علي 6 حروف",
        "newPwd6Char":"يجب أن تحتوي كلمة المرور الجديدة علي الاقل علي 6 حروف",
        "newconpwdmatch":"يجب أن تتطابق كلمة المرور الجديدة وتأكيد كلمة المرور",
        "oldconfpwdsame":"كلمة المرور التي أدخلتها تشابه كلمة المرورالسابقه، فضلاً قم بتغييرها",
        "connDialHelpline":"الاتصال بسددلي للمساعده",
        "scanDialCode":"فحص رمز الاستجابه السريعة",
        "toPay":"الدفع الى",
        "or":"او",
        "download":" تحميل",
        "print":" طباعة",
        "signIn":"تسجيل الدخول",
        "signUp":"تسجيل البيانات",
        
        
        "re-enterEmailId":"فضلاً اعد إدخال البريد الالكتروني",
        "reenterEmailnotValid":"اعد إدخال البريد الالكتروني ***@***.com",
        "bothReenterMailsnotvalidate":"البريدان الالكترونيان غير مطابقان",
        "reentEmail":"اعد إدخال البريد الالكتروني",
        "reentEmail:":": اعد إدخال البريد الالكتروني",
        "Emailid:":": البريد الالكتروني",
        "account":"الحساب",
        "invFrndsEarn5Riyal":" ادعو أصدقائك واحصل علي  5 ريال ",
        "inviteFrnds":"ادعو أصدقائك",
        
        "wonderfulThaknu":"رائع , شكراً لك",
        "activationcode":"كود التفعيل",
        "wesentpwdtoMobNum":"سوف نرسل كلمة المرور الخاصة بك لرقم الجوال الذي ادخلته",
        "homemsg":"تنويه : تم اضافة شركات شحن جديدة يمكنك الأطلاع عليها من قائمة الشركات الجديدة",
        "services":"الخدمات",
        "welcomeback":" مرحبا ",
        "urcurrwalamounis":" الرصيد الحالي بالمحفظة ",
        
        "Regtext":"فضلاُ أدخل كلمة المرور المؤقته",
        "enterOTP":"أدخل كلمة المرور المؤقته",
        "loginOtp":"تسجيل الدخول بكلمة المرور المؤقته",
        "getOTP":"أحصل علي كلمة المرور المؤقته",
        "incorrOTP":"كلمة المرور التي أدخلتها غير صحيحة",
        "ValidOTP":"كلمة المرور المؤقته صحيحة",
        
        
        "seAll":" أختر الكل ",
        "plsselcontacts":"فضلاً اختر قائمة الاتصال",
        
        "sentInvFrnds":"أرسل دعوة الي اصدقائك",
        "NotSentInvFrnds":"لم تقم بأرسال دعوة الي الاصدقاء",
        "AlreadySentInvFrnds":"لقد قمت بالفعل بأرسال دعوة الي اصدقائك",
        "failgetLoca":"تم فشل العملية للحصول علي موقعك",
        "sadGivessevChoitorc":"سددلي تتيح لك العديد من الخيارات لتعبئة الرصيد",
        "douwantchaprofphoto":"هل تود تغيير صورة ملفك الشخصي",
        "yes":"نعم",
        "no":"لا",
        "howtoRedeem":"كيف يمكنك استخدام العلاوه النقديه",
        "offers":"عروض",
        "changeEmail":" تغيير الأيميل ",
        "selOperator":"اختر مزود الخدمة",
        "uHaveSucAdded":"تم الإضافة بنجاح",
        "couponvalidonce/month":"الكوبون صالح لمره واحده بالشهر",
        "invalQRCode":"رمز الإستجابة السريع غير صالح",
        "scanAValidSaddCode":"فضلاً قم بعمل مسح لرمز الإستجابة السريع مع تطبيق سددلي",
        "amountSuccToFrnd":"تم ارسال القيمة بنجاح لصديقك",
        "checkinwebt&c":"فضلاً تأكد عبر موقعنا",
        "invited":"دعوة",
        
        "help":"للمساعده",
        "serTaxApp100":"ضريبة الخدمة سارية على الرصيد أقل من 100",
        "serviceTax":"1.5 SAR : ضريبة الخدمة",
        "balamount10":"يجب ان تكون قيمة الرصيد أكبر من أوتساوى 10ريال",
        "cardbalamount10":"يجب أن تكون القيمة من البطاقة أكبر من أو تساوي 10",
        
        
        "uremailupdated":"وتحديث البريد الإلكتروني الخاص بك",
        "DEBIT/ATMCARD":" بطاقة الصراف الآلي",
        
        "EnterOTP":"  فضلاً ادخل كلمة المرور المؤقته",
        
        "EmailExist":"الأيميل موجود مسبقاً",
        "notifications":"إشعار",
        "shareTitle":"شارك",
        
        
        "faqs":"اسئلة متكرره",
        "demovideo":"فيديو توضيحى",
        "folowUsOn":"تابعنا على",
        
        
        "launchsoon":"سنبدأ قريباً",
        "voucherCode":": كود الشحن",
        "giftCards":"بطاقات الهدايا",
        "transferCOuponvalue":"ارسال قيمة",
        "referralCode":"رمز المشاركة  (اختيارى )",
        
        "entersadadid":"أدخل اسم المستخدم لحساب سداد",
        "sadadid":"اسم المستخدم لحساب سداد",
        "PurchaseGiFtcards":"شراء بطاقات الهدايا",
        "browsegiftcards":"أطلع علي بطاقات الهدايا",
        "purchase":" شراء",
        "GiftCards":"بطاقات الهدايا",
        "US":"المتجر الامريكي",
        "UK":"المتجر البريطاني",
        "enterIqmaNum":"رقم الهوية",
        "plsentSadadId":"يرجى ادخال اسم المستخدم لحساب سداد",
        "enterIqmaNum":"رقم الهوية",
        "clicktoRc":"للشحن اضغط هنا",
        "iqmaNotEmpty":"فضلا ادخل رقم الهوية",
        "iqma10digits":"يتكون رقم الهوية من ١٠ ارقام",
        "voucherCodeCopy":" تم نسخ كود الشحن",
        "ussdCopied":"تم نسخ كود الشحن فضلا قم بالالصاق علي مفتاح الاتصال",
        "purConfirmation":"تأكيد الشراء",
        "store":"متجر",
        "purchaseValue":"قيمة الشراء",
        "purchaseStatus":"حالة او وضع الشراء",
        "rcPlan":"باقة التعبئة",
        "rcValue":"قيمة الرصيد",
        "entSADADID":"أدخل اسم المستخدم لحساب سداد",
        "seledOperator":"مزود الخدمة",
        "guest":"زائر",
        "continueGuest":"مواصلة كزائر",
        "GuestRegistration":"هل تريد التسجيل علي التطبيق ؟",
        "OLPID":"حساب سداد غير موجود. الرجاء إدخال حساب صحيح",
        "verification":"تحقق",
        "copy":"نسخ",
        "details":"التفاصيل",
        "refund":"إعادة النقود",
        "card":"بطاقة",
        "repeat":"تكرار",
        "invoice":"فاتورة",
        "paidusing":"المبلغ المستخدم",
        "transactedon":"تمت معالجتها:",
        "nonotiYes":"لا توجد اشعارات الان",
        "giftcard":"بطاقات الهدايا",
        "refundreceived":"تم إستلام المبلغ المسترجع",
        "mobileRc":"تعبئة الرصيد :",
        
        
        "writeUs":"راسلنا",
        "plsselurlan":"يرجى اختيار اللغة",
        "Support":"الدعم",
        
        
        "issuetype":"نوع المشكلة",
        "txnId":"رقم التحويل",
        "ticketid":"رقم تعريف التذكرة",
        "txnDate":"تاريخ التحويل",
        "txntime":"زمن التحويل",
        "aboutIssue":"عن المشكلة",
        "fileAttach":"ملف مرفق",
        
        "selissuetype":"تحديد نوع المشكلة",
        
        
        "plsselissuetype":"الرجاء تحديد نوع المشكلة",
        "plsentTxnId":"الرجاء ادخال رمز التحويل",
        "plsseltxndate":"فضلا اختر تاريخ التحويل",
        "plsseltxntime":"فضلا اختر زمن التحويل",
        "plsentissue":"فضلا اكتب المشكلة",
        "plsattachFile":"فضلا ارفق الملف",
        
        
        
        "itunesGC":"آي تيونز",
        "xboxGC":"بطاقات بلاي ستيشن",
        "playstationGC":"بطاقات اكس بوكس",
        
        
        "sadad6-12char":"يجب ان يكون اسم مستخدم سداد بين  6-12حرف",
        "Support":"الدعم",
        
        
        "name12":"الأسم",
        "mobnum12":"رقم الجوال",
        "Email12":"البريد الالكتروني",
        "Amount12":"القيمة",

        "iqmaNum":"رقم الإقامة",
        
        "actVal":"القيمة الحقيقية",
        "payBalVal":"ادفع قيمة الرصيد",
        
    
        "urBalance":"رصيدكم الان",
       
        
        "voicePackage":"باقات المكالمات",
        "dataPackage":"باقات الانترنت",
        "usPackage":"المتجر الامريكي",
        "ukPackage":"المتجر البريطاني",
        
        "selPackage":"اختر الباقة",
        "updateProfle":"تحديث الملف الشخصي",
        


        "quickRc":"شحن سريع",
        "vouchCode":"كود الشحن",

        
        "plsEntVouCode":"فضلا ادخل كوبون الشحن",
        "transferName":"تحويل",
        "Nopuravailable":"لا مشتريات حاليه ",

        "onlyMobile":"الجوال",
        "lblMinChar75":"",
        
        

        "willSendotpMobNum":"سوف نرسل كلمة المرور المؤقته لرقم الجوال المدخل",
        "enterotpMobNum":"فضلاً أدخل كلمة المرور المؤقته التي أرسلت لرقم جوالك",
        
        "iqma10or14":"يجب ان تكون  ارقام الإقامة من 10 الى14 رقم",
        
        "seldOper":"مزود الخدمة",
        
       
        
        "pwd8char":"كلمة المرور يجب ان تتكون من 8 أحرف علي الاقل ",
        "cnfrmpwd8char":"تاكيد كلمة المرور يجب ان يحتوي 8 أحرف علي الاقل ",
        
        
        
        
        
        "Sawaname":"سوى",
        "Zainname":"زين",
        "Virginname":"فيرجن",
        "Friendiname":"فريندلي",
        "Jawwyname":"جاوي",
        "Quicknetname":"كويكنت",
        "Mobilyname":"سوى",
        "Lebaraname":"ليبارا",
        
        
        "numbername":"رقم",
        "planname":"خطة",
        
        
        
        
        "repeatNotAllow":"غير مسموح بتكرار الحروف  لكلمة المرور",
        "updatePwd":"تحديث كلمة المرور",
        
        
        
        
        

        
        
        
        
        
        
        
        
        
    }
